[
{
  "model": "djpuro.category",
  "pk": 1,
  "fields": {
    "active": true,
    "name": "Veh\u00edculo",
    "description": "Veh\u00edculo"
  }
},
{
  "model": "djpuro.category",
  "pk": 2,
  "fields": {
    "active": true,
    "name": "Inform\u00e1tica",
    "description": "Informaci\u00f3n de inform\u00e1tica"
  }
}
]
